…
# Copy R object to have a working file and a backup
gradebook <- ExcelGradeBook 
gradebook
#> # A tibble: 43 × 63
#>    ...1  `Assessment Type` ...3  ...4   ...5  ...6  ...7  ...8  ...9  ...10
#>    <chr> <chr>             <chr> <chr>  <chr> <chr> <chr> <chr> <chr> <chr>
#>  1 <NA>  Points            <NA>  <NA>   <NA>  <NA>  <NA>  <NA>  <NA>  <NA> 
#>  2 <NA>  Point Multiplier  <NA>  <NA>   <NA>  <NA>  <NA>  <NA>  <NA>  <NA> 
#>  3 <NA>  Date              <NA>  <NA>   <NA>  <NA>  <NA>  <NA>  <NA>  <NA> 
#>  4 <NA>  <NA>              <NA>  <NA>   <NA>  <NA>  <NA>  <NA>  <NA>  <NA> 
#>  5 A-    90                <NA>  <NA>   <NA>  <NA>  <NA>  <NA>  <NA>  <NA> 
#>  6 B-    80                <NA>  <NA>   <NA>  <NA>  <NA>  <NA>  <NA>  <NA> 
#>  7 C-    70                <NA>  <NA>   <NA>  <NA>  <NA>  <NA>  <NA>  <NA> 
#>  8 D-    60                <NA>  <NA>   <NA>  <NA>  <NA>  <NA>  <NA>  <NA> 
#>  9 F:    0                 <NA>  <NA>   <NA>  <NA>  <NA>  <NA>  <NA>  <NA> 
#> 10 Class Name              Race  Gender Age   Repe… Fina… Abse… Late  Make…
#> # … with 33 more rows, and 53 more variables: ...11 <chr>, ...12 <chr>,
#> #   ...13 <chr>, ...14 <chr>, ...15 <chr>, ...16 <chr>, ...17 <chr>,
#> #   ...18 <chr>, Classworks...19 <chr>, Homeworks...20 <chr>,
#> #   Classworks...21 <chr>, Homeworks...22 <chr>, Classworks...23 <chr>,
#> #   Classworks...24 <chr>, Classworks...25 <chr>, Classworks...26 <chr>,
#> #   Homeworks...27 <chr>, Formative Assessments...28 <chr>,
#> #   Projects...29 <chr>, Classworks...30 <chr>, Homeworks...31 <chr>, …
```
…
# Copy R object to have a working file and a backup
gradebook <- ExcelGradeBook 
gradebook
#> # A tibble: 25 × 63
#>    Class Name   Race  Gender Age   `Repeated Grade… `Financial Stat… Absent
#>    <dbl> <chr>  <lgl> <lgl>  <lgl> <lgl>            <lgl>            <chr> 
#>  1     1 Stude… NA    NA     NA    NA               NA               1     
#>  2     1 Stude… NA    NA     NA    NA               NA               0     
#>  3     1 Stude… NA    NA     NA    NA               NA               2     
#>  4     1 Stude… NA    NA     NA    NA               NA               0     
#>  5     1 Stude… NA    NA     NA    NA               NA               0     
#>  6     1 Stude… NA    NA     NA    NA               NA               0     
#>  7     1 Stude… NA    NA     NA    NA               NA               0     
#>  8     1 Stude… NA    NA     NA    NA               NA               0     
#>  9     1 Stude… NA    NA     NA    NA               NA               0     
#> 10     1 Stude… NA    NA     NA    NA               NA               <NA>  
#> # … with 15 more rows, and 55 more variables: Late <chr>,
#> #   Make your own categories <lgl>, Running Average <dbl>,
#> #   Letter Grade <chr>, Homeworks <dbl>, Classworks <dbl>,
#> #   Formative Assessments <dbl>, Projects <dbl>,
#> #   Summative Assessments <dbl>, Another Type 2 <lgl>, Classwork 1 <dbl>,
#> #   Homework 1 <dbl>, Classwork 2 <dbl>, Homework 2 <chr>,
#> #   Classwork 3 <chr>, Classwork 4 <dbl>, Classwork 5 <dbl>, …
```
…
