2 Online Science Class Data | Learning Data Science with R
…
Collecting all questions and answers under their respective headings we need to invent two names for the new columns. Appropriate names for the variables are question and response.

To add in the future new variables to the dataset we will create a new object measure mean.

# Pivot the dataset from wide to long format
measure_mean <-
  pre_survey %>%
  # Gather questions and responses
  pivot_longer(cols = q1:q10,
               names_to = "question",
               values_to = "response")

measure_mean
#> # A tibble: 11,020 × 4
#>    opdata_username opdata_CourseID question response
#>    <chr>           <chr>           <chr>       <dbl>
#>  1 _80624_1        FrScA-S116-01   q1              4
#>  2 _80624_1        FrScA-S116-01   q2              4
#>  3 _80624_1        FrScA-S116-01   q3              4
#>  4 _80624_1        FrScA-S116-01   q4              5
#>  5 _80624_1        FrScA-S116-01   q5              5
#>  6 _80624_1        FrScA-S116-01   q6              4
#>  7 _80624_1        FrScA-S116-01   q7              5
#>  8 _80624_1        FrScA-S116-01   q8              5
#>  9 _80624_1        FrScA-S116-01   q9              5
#> 10 _80624_1        FrScA-S116-01   q10             5
#> # … with 11,010 more rows
…
We’ll introduce a new operator in order to do this: %in!%. Practically, this operator means that R should look within a list for something.

# Add measure variable 
measure_mean_1 <- measure_mean %>% 
  # Here's where we make the column of question categories called "measure"
  mutate(
    measure = case_when(
      question %in% c("q1", "q4", "q5", "q8", "q10") ~ "int",
      question %in% c("q2", "q6", "q9") ~ "uv",
      question %in% c("q3", "q7") ~ "pc",
      TRUE ~ NA_character_)
  )

measure_mean_1
#> # A tibble: 11,020 × 5
#>    opdata_username opdata_CourseID question response measure
#>    <chr>           <chr>           <chr>       <dbl> <chr>  
#>  1 _80624_1        FrScA-S116-01   q1              4 int    
#>  2 _80624_1        FrScA-S116-01   q2              4 uv     
#>  3 _80624_1        FrScA-S116-01   q3              4 pc     
#>  4 _80624_1        FrScA-S116-01   q4              5 int    
#>  5 _80624_1        FrScA-S116-01   q5              5 int    
#>  6 _80624_1        FrScA-S116-01   q6              4 uv     
#>  7 _80624_1        FrScA-S116-01   q7              5 pc     
#>  8 _80624_1        FrScA-S116-01   q8              5 int    
#>  9 _80624_1        FrScA-S116-01   q9              5 uv     
#> 10 _80624_1        FrScA-S116-01   q10             5 int    
#> # … with 11,010 more rows
…
2.4.3 Join data

The pre_survey and course_data datasets are referring to the same courses. Opdata_courseID (pre_survey dataset) and CourseSectionOrigID (course_data dataset) have the same identifiers. To join both datasets we need a column with the same name and same values (keys) in both tibbles. Instead to rename just one of these columns we take the occasion and clean up the name of both. One variable will correspond to the course, and the other will correspond to the student.

2.4.3.1 Create keys

We will rename opdata_username and opdata_CourseID to be student_id and course_id, respectively. (In the book there is in the text mentioned with RespondentID a wrong column name. But the code is correct.)

pre_survey <-
  pre_survey %>%
  rename(student_id = opdata_username,
         course_id = opdata_CourseID)

pre_survey
#> # A tibble: 1,102 × 12
#>    student_id course_id        q1    q2    q3    q4    q5    q6    q7    q8
#>    <chr>      <chr>         <dbl> <dbl> <dbl> <dbl> <dbl> <dbl> <dbl> <dbl>
#>  1 _80624_1   FrScA-S116-01     4     4     4     5     5     4     5     5
#>  2 _80623_1   BioA-S116-01      4     4     3     4     4     4     4     3
#>  3 _82588_1   OcnA-S116-03     NA    NA    NA    NA    NA    NA    NA    NA
#>  4 _80623_1   AnPhA-S116-01     4     3     3     4     3     3     3     4
#>  5 _80624_1   AnPhA-S116-01    NA    NA    NA    NA    NA    NA    NA    NA
#>  6 _80624_1   AnPhA-S116-02     4     2     2     4     4     4     5     4
#>  7 _80624_1   AnPhA-T116-01    NA    NA    NA    NA    NA    NA    NA    NA
#>  8 _80624_1   BioA-S116-01      5     3     3     5     5     4     5     5
#>  9 _80624_1   BioA-T116-01     NA    NA    NA    NA    NA    NA    NA    NA
#> 10 _80624_1   PhysA-S116-01     4     4     3     4     4     4     4     4
#> # … with 1,092 more rows, and 2 more variables: q9 <dbl>, q10 <dbl>

course_data <-
  course_data %>%
  rename(student_id = Bb_UserPK,
         course_id = CourseSectionOrigID)

course_data
#> # A tibble: 29,711 × 11
#>    course_id     subject semester section student_id Gradebook_Item        
#>    <chr>         <chr>   <chr>    <chr>        <dbl> <chr>                 
#>  1 AnPhA-S116-01 AnPhA   S116     01           60186 POINTS EARNED & TOTAL…
#>  2 AnPhA-S116-01 AnPhA   S116     01           60186 WORK ATTEMPTED        
#>  3 AnPhA-S116-01 AnPhA   S116     01           60186 0.1: Message Your Ins…
#>  4 AnPhA-S116-01 AnPhA   S116     01           60186 0.2: Intro Assignment…
#>  5 AnPhA-S116-01 AnPhA   S116     01           60186 0.3: Intro Assignment…
#>  6 AnPhA-S116-01 AnPhA   S116     01           60186 1.1: Quiz             
#>  7 AnPhA-S116-01 AnPhA   S116     01           60186 1.2: Quiz             
#>  8 AnPhA-S116-01 AnPhA   S116     01           60186 1.3: Create a Living …
#>  9 AnPhA-S116-01 AnPhA   S116     01           60186 1.3: Create a Living …
#> 10 AnPhA-S116-01 AnPhA   S116     01           60186 1.4: Negative Feedbac…
#> # … with 29,701 more rows, and 5 more variables: Grade_Category <chr>,
#> #   FinalGradeCEMS <dbl>, Points_Possible <dbl>, Points_Earned <dbl>,
#> #   Gender <chr>
…
# Re-create the variable "student_id" so that it excludes the extraneous characters
pre_survey <- pre_survey %>% 
  mutate(student_id = str_sub(student_id, start = 2, end = -3))

# Save "student_id" as a character string so that it matches with `pre_survey` 
course_data <-  course_data |> 
  mutate(student_id = as.character(student_id))

2.4.3.3 left_join()

dat <-
  left_join(course_data, pre_survey,
            by = c("student_id", "course_id"))
dat
#> # A tibble: 40,348 × 21
#>    course_id     subject semester section student_id Gradebook_Item        
#>    <chr>         <chr>   <chr>    <chr>   <chr>      <chr>                 
#>  1 AnPhA-S116-01 AnPhA   S116     01      60186      POINTS EARNED & TOTAL…
#>  2 AnPhA-S116-01 AnPhA   S116     01      60186      WORK ATTEMPTED        
#>  3 AnPhA-S116-01 AnPhA   S116     01      60186      0.1: Message Your Ins…
#>  4 AnPhA-S116-01 AnPhA   S116     01      60186      0.2: Intro Assignment…
#>  5 AnPhA-S116-01 AnPhA   S116     01      60186      0.3: Intro Assignment…
#>  6 AnPhA-S116-01 AnPhA   S116     01      60186      1.1: Quiz             
#>  7 AnPhA-S116-01 AnPhA   S116     01      60186      1.2: Quiz             
#>  8 AnPhA-S116-01 AnPhA   S116     01      60186      1.3: Create a Living …
#>  9 AnPhA-S116-01 AnPhA   S116     01      60186      1.3: Create a Living …
#> 10 AnPhA-S116-01 AnPhA   S116     01      60186      1.4: Negative Feedbac…
#> # … with 40,338 more rows, and 15 more variables: Grade_Category <chr>,
#> #   FinalGradeCEMS <dbl>, Points_Possible <dbl>, Points_Earned <dbl>,
#> #   Gender <chr>, q1 <dbl>, q2 <dbl>, q3 <dbl>, q4 <dbl>, q5 <dbl>,
#> #   q6 <dbl>, q7 <dbl>, q8 <dbl>, q9 <dbl>, q10 <dbl>
…
2.4.3.4 semi_join()

semi_join() joins and retains all of the matching rows in the “left” and “right” data frame. This is useful when you are only interested in keeping the rows (or cases/observations) that are able to be joined. semi_join() will not create duplicate rows of the left data frame, even when it finds multiple matches on the right data frame. It will also keep only the columns from the left data frame.

For example, the following returns only the rows that are present in both course_data and pre_survey:

dat_semi <- 
  semi_join(course_data,
            pre_survey,
            by = c("student_id", "course_id"))

dat_semi
#> # A tibble: 28,655 × 11
#>    course_id     subject semester section student_id Gradebook_Item        
#>    <chr>         <chr>   <chr>    <chr>   <chr>      <chr>                 
#>  1 AnPhA-S116-01 AnPhA   S116     01      60186      POINTS EARNED & TOTAL…
#>  2 AnPhA-S116-01 AnPhA   S116     01      60186      WORK ATTEMPTED        
#>  3 AnPhA-S116-01 AnPhA   S116     01      60186      0.1: Message Your Ins…
#>  4 AnPhA-S116-01 AnPhA   S116     01      60186      0.2: Intro Assignment…
#>  5 AnPhA-S116-01 AnPhA   S116     01      60186      0.3: Intro Assignment…
#>  6 AnPhA-S116-01 AnPhA   S116     01      60186      1.1: Quiz             
#>  7 AnPhA-S116-01 AnPhA   S116     01      60186      1.2: Quiz             
#>  8 AnPhA-S116-01 AnPhA   S116     01      60186      1.3: Create a Living …
#>  9 AnPhA-S116-01 AnPhA   S116     01      60186      1.3: Create a Living …
#> 10 AnPhA-S116-01 AnPhA   S116     01      60186      1.4: Negative Feedbac…
#> # … with 28,645 more rows, and 5 more variables: Grade_Category <chr>,
#> #   FinalGradeCEMS <dbl>, Points_Possible <dbl>, Points_Earned <dbl>,
#> #   Gender <chr>

dat_semi2 <- 
  semi_join(pre_survey,
            course_data,
            by = c("course_id"))

dat_semi2
#> # A tibble: 1,072 × 12
#>    student_id course_id        q1    q2    q3    q4    q5    q6    q7    q8
#>    <chr>      <chr>         <dbl> <dbl> <dbl> <dbl> <dbl> <dbl> <dbl> <dbl>
#>  1 80624      FrScA-S116-01     4     4     4     5     5     4     5     5
#>  2 80623      BioA-S116-01      4     4     3     4     4     4     4     3
#>  3 82588      OcnA-S116-03     NA    NA    NA    NA    NA    NA    NA    NA
#>  4 80623      AnPhA-S116-01     4     3     3     4     3     3     3     4
#>  5 80624      AnPhA-S116-01    NA    NA    NA    NA    NA    NA    NA    NA
#>  6 80624      AnPhA-S116-02     4     2     2     4     4     4     5     4
#>  7 80624      AnPhA-T116-01    NA    NA    NA    NA    NA    NA    NA    NA
#>  8 80624      BioA-S116-01      5     3     3     5     5     4     5     5
#>  9 80624      BioA-T116-01     NA    NA    NA    NA    NA    NA    NA    NA
#> 10 80624      PhysA-S116-01     4     4     3     4     4     4     4     4
#> # … with 1,062 more rows, and 2 more variables: q9 <dbl>, q10 <dbl>

2.4.3.5 anti-join()

anti_join() removes all of the rows in the “left” data frame that can be joined with those in the “right” data frame.

dat_anti <-
  anti_join(course_data,
            pre_survey,
            by = c("student_id", "course_id"))

dat_anti
#> # A tibble: 1,056 × 11
#>    course_id     subject semester section student_id Gradebook_Item        
#>    <chr>         <chr>   <chr>    <chr>   <chr>      <chr>                 
#>  1 AnPhA-S116-01 AnPhA   S116     01      85865      POINTS EARNED & TOTAL…
#>  2 AnPhA-S116-01 AnPhA   S116     01      85865      WORK ATTEMPTED        
#>  3 AnPhA-S116-01 AnPhA   S116     01      85865      0.1: Message Your Ins…
#>  4 AnPhA-S116-01 AnPhA   S116     01      85865      0.2: Intro Assignment…
#>  5 AnPhA-S116-01 AnPhA   S116     01      85865      0.3: Intro Assignment…
#>  6 AnPhA-S116-01 AnPhA   S116     01      85865      1.1: Quiz             
#>  7 AnPhA-S116-01 AnPhA   S116     01      85865      1.2: Quiz             
#>  8 AnPhA-S116-01 AnPhA   S116     01      85865      1.3: Create a Living …
#>  9 AnPhA-S116-01 AnPhA   S116     01      85865      1.3: Create a Living …
#> 10 AnPhA-S116-01 AnPhA   S116     01      85865      1.4: Negative Feedbac…
#> # … with 1,046 more rows, and 5 more variables: Grade_Category <chr>,
#> #   FinalGradeCEMS <dbl>, Points_Possible <dbl>, Points_Earned <dbl>,
#> #   Gender <chr>

2.4.3.6 right_join()

Perhaps the least helpful of the three, right_join(), works the same as left_join(), but by retaining all of the rows in the “right” data frame, and joining matching rows in the “left” data frame (so, the opposite of left_join()).

dat_right <-
  right_join(course_data,
             pre_survey,
             by = c("student_id", "course_id"))

dat_right
#> # A tibble: 39,593 × 21
#>    course_id     subject semester section student_id Gradebook_Item        
#>    <chr>         <chr>   <chr>    <chr>   <chr>      <chr>                 
#>  1 AnPhA-S116-01 AnPhA   S116     01      60186      POINTS EARNED & TOTAL…
#>  2 AnPhA-S116-01 AnPhA   S116     01      60186      WORK ATTEMPTED        
#>  3 AnPhA-S116-01 AnPhA   S116     01      60186      0.1: Message Your Ins…
#>  4 AnPhA-S116-01 AnPhA   S116     01      60186      0.2: Intro Assignment…
#>  5 AnPhA-S116-01 AnPhA   S116     01      60186      0.3: Intro Assignment…
#>  6 AnPhA-S116-01 AnPhA   S116     01      60186      1.1: Quiz             
#>  7 AnPhA-S116-01 AnPhA   S116     01      60186      1.2: Quiz             
#>  8 AnPhA-S116-01 AnPhA   S116     01      60186      1.3: Create a Living …
#>  9 AnPhA-S116-01 AnPhA   S116     01      60186      1.3: Create a Living …
#> 10 AnPhA-S116-01 AnPhA   S116     01      60186      1.4: Negative Feedbac…
#> # … with 39,583 more rows, and 15 more variables: Grade_Category <chr>,
#> #   FinalGradeCEMS <dbl>, Points_Possible <dbl>, Points_Earned <dbl>,
#> #   Gender <chr>, q1 <dbl>, q2 <dbl>, q3 <dbl>, q4 <dbl>, q5 <dbl>,
#> #   q6 <dbl>, q7 <dbl>, q8 <dbl>, q9 <dbl>, q10 <dbl>

If we wanted this to return exactly the same output as left_join() (and, in doing so, to create a data frame that is identical to the dat data frame we created above), we could simply switch the order of the two data frames to be the opposite of those used for the left_join() above:

dat_right <-
  right_join(pre_survey,
            course_data,
            by = c("student_id", "course_id"))

dat_right
#> # A tibble: 40,348 × 21
#>    student_id course_id        q1    q2    q3    q4    q5    q6    q7    q8
#>    <chr>      <chr>         <dbl> <dbl> <dbl> <dbl> <dbl> <dbl> <dbl> <dbl>
#>  1 85791      FrScA-S116-01     3     3     3     3     4     3     3     3
#>  2 85791      FrScA-S116-01     3     3     3     3     4     3     3     3
#>  3 85791      FrScA-S116-01     3     3     3     3     4     3     3     3
#>  4 85791      FrScA-S116-01     3     3     3     3     4     3     3     3
#>  5 85791      FrScA-S116-01     3     3     3     3     4     3     3     3
#>  6 85791      FrScA-S116-01     3     3     3     3     4     3     3     3
#>  7 85791      FrScA-S116-01     3     3     3     3     4     3     3     3
#>  8 85791      FrScA-S116-01     3     3     3     3     4     3     3     3
#>  9 85791      FrScA-S116-01     3     3     3     3     4     3     3     3
#> 10 85791      FrScA-S116-01     3     3     3     3     4     3     3     3
#> # … with 40,338 more rows, and 11 more variables: q9 <dbl>, q10 <dbl>,
#> #   subject <chr>, semester <chr>, section <chr>, Gradebook_Item <chr>,
#> #   Grade_Category <chr>, FinalGradeCEMS <dbl>, Points_Possible <dbl>,
#> #   Points_Earned <dbl>, Gender <chr>
…
We have 40348 observations from 22 variables. We can also see that we have several rows for the same student (“60186”) and course (“AnPhA-S116-01”), resulting in the same final grade (FinalGradeCEMS) of 86.272. (In the book this figure is rounded to 86.3).

2.4.4 Select distinct row

Since we are not carrying out a finer-grained analysis using the Gradebook_Item, these duplicate rows are not necessary. We only want variables at the student level and not at the level of different gradebook items. We can extract only the unique student-level data using the distinct() function. This function takes as arguments the name of the data frame and the name of the variables used to determine what counts as a unique case.

Running the following code returns a one-column data frame that lists the names of every distinct gradebook item.

distinct(dat, Gradebook_Item)
#> # A tibble: 222 × 1
#>    Gradebook_Item                                  
#>    <chr>                                           
#>  1 POINTS EARNED & TOTAL COURSE POINTS             
#>  2 WORK ATTEMPTED                                  
#>  3 0.1: Message Your Instructor                    
#>  4 0.2: Intro Assignment - Discussion Board        
#>  5 0.3: Intro Assignment - Submitting Files        
#>  6 1.1: Quiz                                       
#>  7 1.2: Quiz                                       
#>  8 1.3: Create a Living Creature                   
#>  9 1.3: Create a Living Creature - Discussion Board
#> 10 1.4: Negative Feedback Loop Flowchart           
#> # … with 212 more rows

You might be wondering whether some gradebook items have the same names across courses. We can return the unique combination of courses and gradebook items by simply adding another variable to distinct():

distinct(dat, course_id, Gradebook_Item)
#> # A tibble: 1,269 × 2
#>    course_id     Gradebook_Item                                  
#>    <chr>         <chr>                                           
#>  1 AnPhA-S116-01 POINTS EARNED & TOTAL COURSE POINTS             
#>  2 AnPhA-S116-01 WORK ATTEMPTED                                  
#>  3 AnPhA-S116-01 0.1: Message Your Instructor                    
#>  4 AnPhA-S116-01 0.2: Intro Assignment - Discussion Board        
#>  5 AnPhA-S116-01 0.3: Intro Assignment - Submitting Files        
#>  6 AnPhA-S116-01 1.1: Quiz                                       
#>  7 AnPhA-S116-01 1.2: Quiz                                       
#>  8 AnPhA-S116-01 1.3: Create a Living Creature                   
#>  9 AnPhA-S116-01 1.3: Create a Living Creature - Discussion Board
#> 10 AnPhA-S116-01 1.4: Negative Feedback Loop Flowchart           
#> # … with 1,259 more rows
…
survey_responses
#> # A tibble: 517 × 4
#> # Groups:   student_id [517]
#>    student_id   int    pc    uv
#>    <chr>      <dbl> <dbl> <dbl>
#>  1 43146       5     4.5   4.33
#>  2 44638       4.2   3.5   4   
#>  3 47448       5     4     3.67
#>  4 47979       5     3.5   5   
#>  5 48797       3.8   3.5   3.5 
#>  6 49147       4.25  3.73  3.71
#>  7 51943       4.6   4     4   
#>  8 52326       5     3.5   5   
#>  9 52446       3     3     3.33
#> 10 53248       4     3     3.33
#> # … with 507 more rows
…
